simulation/qsim/exp7.msim.vcd
$comment
	File created using the following command:
		vcd file exp7.msim.vcd -direction
$end
$date
	Tue May 23 10:16:19 2023
$end
$version
	ModelSim Version 10.1d
$end
$timescale
	1ps
$end
$scope module exp7_vlg_vec_tst $end
$var reg 1 ! clk $end
$var reg 8 " DATA_INPUT [7:0] $end
$var reg 2 # M [1:0] $end
$var reg 1 $ pc_clr $end
$var wire 1 % out_num [15] $end
$var wire 1 & out_num [14] $end
$var wire 1 ' out_num [13] $end
$var wire 1 ( out_num [12] $end
$var wire 1 ) out_num [11] $end
$var wire 1 * out_num [10] $end
$var wire 1 + out_num [9] $end
$var wire 1 , out_num [8] $end
$var wire 1 - out_num [7] $end
$var wire 1 . out_num [6] $end
$var wire 1 / out_num [5] $end
$var wire 1 0 out_num [4] $end
$var wire 1 1 out_num [3] $end
$var wire 1 2 out_num [2] $end
$var wire 1 3 out_num [1] $end
$var wire 1 4 out_num [0] $end
$var wire 1 5 pc1 [7] $end
$var wire 1 6 pc1 [6] $end
$var wire 1 7 pc1 [5] $end
$var wire 1 8 pc1 [4] $end
$var wire 1 9 pc1 [3] $end
$var wire 1 : pc1 [2] $end
$var wire 1 ; pc1 [1] $end
$var wire 1 < pc1 [0] $end
$var wire 1 = sampler $end
$scope module i1 $end
$var wire 1 > gnd $end
$var wire 1 ? vcc $end
$var wire 1 @ unknown $end
$var tri1 1 A devclrn $end
$var tri1 1 B devpor $end
$var tri1 1 C devoe $end
$var wire 1 D out_num[15]~output_o $end
$var wire 1 E out_num[14]~output_o $end
$var wire 1 F out_num[13]~output_o $end
$var wire 1 G out_num[12]~output_o $end
$var wire 1 H out_num[11]~output_o $end
$var wire 1 I out_num[10]~output_o $end
$var wire 1 J out_num[9]~output_o $end
$var wire 1 K out_num[8]~output_o $end
$var wire 1 L out_num[7]~output_o $end
$var wire 1 M out_num[6]~output_o $end
$var wire 1 N out_num[5]~output_o $end
$var wire 1 O out_num[4]~output_o $end
$var wire 1 P out_num[3]~output_o $end
$var wire 1 Q out_num[2]~output_o $end
$var wire 1 R out_num[1]~output_o $end
$var wire 1 S out_num[0]~output_o $end
$var wire 1 T pc1[7]~output_o $end
$var wire 1 U pc1[6]~output_o $end
$var wire 1 V pc1[5]~output_o $end
$var wire 1 W pc1[4]~output_o $end
$var wire 1 X pc1[3]~output_o $end
$var wire 1 Y pc1[2]~output_o $end
$var wire 1 Z pc1[1]~output_o $end
$var wire 1 [ pc1[0]~output_o $end
$var wire 1 \ clk~input_o $end
$var wire 1 ] clk~inputclkctrl_outclk $end
$var wire 1 ^ inst1|PC[0]~8_combout $end
$var wire 1 _ DATA_INPUT[0]~input_o $end
$var wire 1 ` pc_clr~input_o $end
$var wire 1 a M[1]~input_o $end
$var wire 1 b inst1|cs|Add0~0_combout $end
$var wire 1 c M[0]~input_o $end
$var wire 1 d inst1|cs|Add0~1 $end
$var wire 1 e inst1|cs|Add0~2_combout $end
$var wire 1 f inst1|cs|second_counter~0_combout $end
$var wire 1 g inst1|cs|Add0~3 $end
$var wire 1 h inst1|cs|Add0~4_combout $end
$var wire 1 i inst1|cs|Add0~5 $end
$var wire 1 j inst1|cs|Add0~6_combout $end
$var wire 1 k inst1|cs|Add0~7 $end
$var wire 1 l inst1|cs|Add0~8_combout $end
$var wire 1 m inst1|cs|Add0~9 $end
$var wire 1 n inst1|cs|Add0~10_combout $end
$var wire 1 o inst1|cs|Add0~11 $end
$var wire 1 p inst1|cs|Add0~12_combout $end
$var wire 1 q inst1|cs|Add0~13 $end
$var wire 1 r inst1|cs|Add0~14_combout $end
$var wire 1 s inst1|cs|Add0~15 $end
$var wire 1 t inst1|cs|Add0~16_combout $end
$var wire 1 u inst1|cs|Add0~17 $end
$var wire 1 v inst1|cs|Add0~18_combout $end
$var wire 1 w inst1|cs|Add0~19 $end
$var wire 1 x inst1|cs|Add0~20_combout $end
$var wire 1 y inst1|cs|Add0~21 $end
$var wire 1 z inst1|cs|Add0~22_combout $end
$var wire 1 { inst1|cs|Add0~23 $end
$var wire 1 | inst1|cs|Add0~24_combout $end
$var wire 1 } inst1|cs|Add0~25 $end
$var wire 1 ~ inst1|cs|Add0~26_combout $end
$var wire 1 !! inst1|cs|Add0~27 $end
$var wire 1 "! inst1|cs|Add0~28_combout $end
$var wire 1 #! inst1|cs|Add0~29 $end
$var wire 1 $! inst1|cs|Add0~30_combout $end
$var wire 1 %! inst1|cs|Add0~31 $end
$var wire 1 &! inst1|cs|Add0~32_combout $end
$var wire 1 '! inst1|cs|Add0~33 $end
$var wire 1 (! inst1|cs|Add0~34_combout $end
$var wire 1 )! inst1|cs|Add0~35 $end
$var wire 1 *! inst1|cs|Add0~36_combout $end
$var wire 1 +! inst1|cs|Add0~37 $end
$var wire 1 ,! inst1|cs|Add0~38_combout $end
$var wire 1 -! inst1|cs|Add0~39 $end
$var wire 1 .! inst1|cs|Add0~40_combout $end
$var wire 1 /! inst1|cs|Add0~41 $end
$var wire 1 0! inst1|cs|Add0~42_combout $end
$var wire 1 1! inst1|cs|Add0~43 $end
$var wire 1 2! inst1|cs|Add0~44_combout $end
$var wire 1 3! inst1|cs|Add0~45 $end
$var wire 1 4! inst1|cs|Add0~46_combout $end
$var wire 1 5! inst1|cs|Add0~47 $end
$var wire 1 6! inst1|cs|Add0~48_combout $end
$var wire 1 7! inst1|cs|Equal0~6_combout $end
$var wire 1 8! inst1|cs|Equal0~5_combout $end
$var wire 1 9! inst1|cs|Add0~49 $end
$var wire 1 :! inst1|cs|Add0~50_combout $end
$var wire 1 ;! inst1|cs|Add0~51 $end
$var wire 1 <! inst1|cs|Add0~52_combout $end
$var wire 1 =! inst1|cs|Add0~53 $end
$var wire 1 >! inst1|cs|Add0~54_combout $end
$var wire 1 ?! inst1|cs|Add0~55 $end
$var wire 1 @! inst1|cs|Add0~56_combout $end
$var wire 1 A! inst1|cs|Add0~57 $end
$var wire 1 B! inst1|cs|Add0~58_combout $end
$var wire 1 C! inst1|cs|Add0~59 $end
$var wire 1 D! inst1|cs|Add0~60_combout $end
$var wire 1 E! inst1|cs|Add0~61 $end
$var wire 1 F! inst1|cs|Add0~62_combout $end
$var wire 1 G! inst1|cs|Equal0~7_combout $end
$var wire 1 H! inst1|cs|Equal0~8_combout $end
$var wire 1 I! inst1|cs|Equal0~0_combout $end
$var wire 1 J! inst1|cs|Equal0~3_combout $end
$var wire 1 K! inst1|cs|Equal0~1_combout $end
$var wire 1 L! inst1|cs|Equal0~2_combout $end
$var wire 1 M! inst1|cs|Equal0~4_combout $end
$var wire 1 N! inst1|cs|Equal0~9_combout $end
$var wire 1 O! inst1|PC[7]~24_combout $end
$var wire 1 P! inst1|PC[0]~9 $end
$var wire 1 Q! inst1|PC[1]~10_combout $end
$var wire 1 R! DATA_INPUT[1]~input_o $end
$var wire 1 S! inst1|PC[1]~11 $end
$var wire 1 T! inst1|PC[2]~12_combout $end
$var wire 1 U! DATA_INPUT[2]~input_o $end
$var wire 1 V! inst1|PC[2]~13 $end
$var wire 1 W! inst1|PC[3]~14_combout $end
$var wire 1 X! DATA_INPUT[3]~input_o $end
$var wire 1 Y! inst1|PC[3]~15 $end
$var wire 1 Z! inst1|PC[4]~16_combout $end
$var wire 1 [! DATA_INPUT[4]~input_o $end
$var wire 1 \! inst1|PC[4]~17 $end
$var wire 1 ]! inst1|PC[5]~18_combout $end
$var wire 1 ^! DATA_INPUT[5]~input_o $end
$var wire 1 _! inst1|PC[5]~19 $end
$var wire 1 `! inst1|PC[6]~20_combout $end
$var wire 1 a! DATA_INPUT[6]~input_o $end
$var wire 1 b! inst1|PC[6]~21 $end
$var wire 1 c! inst1|PC[7]~22_combout $end
$var wire 1 d! DATA_INPUT[7]~input_o $end
$var wire 1 e! inst1|PC [7] $end
$var wire 1 f! inst1|PC [6] $end
$var wire 1 g! inst1|PC [5] $end
$var wire 1 h! inst1|PC [4] $end
$var wire 1 i! inst1|PC [3] $end
$var wire 1 j! inst1|PC [2] $end
$var wire 1 k! inst1|PC [1] $end
$var wire 1 l! inst1|PC [0] $end
$var wire 1 m! inst|srom|rom_block|auto_generated|q_a [15] $end
$var wire 1 n! inst|srom|rom_block|auto_generated|q_a [14] $end
$var wire 1 o! inst|srom|rom_block|auto_generated|q_a [13] $end
$var wire 1 p! inst|srom|rom_block|auto_generated|q_a [12] $end
$var wire 1 q! inst|srom|rom_block|auto_generated|q_a [11] $end
$var wire 1 r! inst|srom|rom_block|auto_generated|q_a [10] $end
$var wire 1 s! inst|srom|rom_block|auto_generated|q_a [9] $end
$var wire 1 t! inst|srom|rom_block|auto_generated|q_a [8] $end
$var wire 1 u! inst|srom|rom_block|auto_generated|q_a [7] $end
$var wire 1 v! inst|srom|rom_block|auto_generated|q_a [6] $end
$var wire 1 w! inst|srom|rom_block|auto_generated|q_a [5] $end
$var wire 1 x! inst|srom|rom_block|auto_generated|q_a [4] $end
$var wire 1 y! inst|srom|rom_block|auto_generated|q_a [3] $end
$var wire 1 z! inst|srom|rom_block|auto_generated|q_a [2] $end
$var wire 1 {! inst|srom|rom_block|auto_generated|q_a [1] $end
$var wire 1 |! inst|srom|rom_block|auto_generated|q_a [0] $end
$var wire 1 }! inst1|cs|second_counter [31] $end
$var wire 1 ~! inst1|cs|second_counter [30] $end
$var wire 1 !" inst1|cs|second_counter [29] $end
$var wire 1 "" inst1|cs|second_counter [28] $end
$var wire 1 #" inst1|cs|second_counter [27] $end
$var wire 1 $" inst1|cs|second_counter [26] $end
$var wire 1 %" inst1|cs|second_counter [25] $end
$var wire 1 &" inst1|cs|second_counter [24] $end
$var wire 1 '" inst1|cs|second_counter [23] $end
$var wire 1 (" inst1|cs|second_counter [22] $end
$var wire 1 )" inst1|cs|second_counter [21] $end
$var wire 1 *" inst1|cs|second_counter [20] $end
$var wire 1 +" inst1|cs|second_counter [19] $end
$var wire 1 ," inst1|cs|second_counter [18] $end
$var wire 1 -" inst1|cs|second_counter [17] $end
$var wire 1 ." inst1|cs|second_counter [16] $end
$var wire 1 /" inst1|cs|second_counter [15] $end
$var wire 1 0" inst1|cs|second_counter [14] $end
$var wire 1 1" inst1|cs|second_counter [13] $end
$var wire 1 2" inst1|cs|second_counter [12] $end
$var wire 1 3" inst1|cs|second_counter [11] $end
$var wire 1 4" inst1|cs|second_counter [10] $end
$var wire 1 5" inst1|cs|second_counter [9] $end
$var wire 1 6" inst1|cs|second_counter [8] $end
$var wire 1 7" inst1|cs|second_counter [7] $end
$var wire 1 8" inst1|cs|second_counter [6] $end
$var wire 1 9" inst1|cs|second_counter [5] $end
$var wire 1 :" inst1|cs|second_counter [4] $end
$var wire 1 ;" inst1|cs|second_counter [3] $end
$var wire 1 <" inst1|cs|second_counter [2] $end
$var wire 1 =" inst1|cs|second_counter [1] $end
$var wire 1 >" inst1|cs|second_counter [0] $end
$var wire 1 ?" inst|srom|rom_block|auto_generated|ram_block1a0_PORTADATAOUT_bus [17] $end
$var wire 1 @" inst|srom|rom_block|auto_generated|ram_block1a0_PORTADATAOUT_bus [16] $end
$var wire 1 A" inst|srom|rom_block|auto_generated|ram_block1a0_PORTADATAOUT_bus [15] $end
$var wire 1 B" inst|srom|rom_block|auto_generated|ram_block1a0_PORTADATAOUT_bus [14] $end
$var wire 1 C" inst|srom|rom_block|auto_generated|ram_block1a0_PORTADATAOUT_bus [13] $end
$var wire 1 D" inst|srom|rom_block|auto_generated|ram_block1a0_PORTADATAOUT_bus [12] $end
$var wire 1 E" inst|srom|rom_block|auto_generated|ram_block1a0_PORTADATAOUT_bus [11] $end
$var wire 1 F" inst|srom|rom_block|auto_generated|ram_block1a0_PORTADATAOUT_bus [10] $end
$var wire 1 G" inst|srom|rom_block|auto_generated|ram_block1a0_PORTADATAOUT_bus [9] $end
$var wire 1 H" inst|srom|rom_block|auto_generated|ram_block1a0_PORTADATAOUT_bus [8] $end
$var wire 1 I" inst|srom|rom_block|auto_generated|ram_block1a0_PORTADATAOUT_bus [7] $end
$var wire 1 J" inst|srom|rom_block|auto_generated|ram_block1a0_PORTADATAOUT_bus [6] $end
$var wire 1 K" inst|srom|rom_block|auto_generated|ram_block1a0_PORTADATAOUT_bus [5] $end
$var wire 1 L" inst|srom|rom_block|auto_generated|ram_block1a0_PORTADATAOUT_bus [4] $end
$var wire 1 M" inst|srom|rom_block|auto_generated|ram_block1a0_PORTADATAOUT_bus [3] $end
$var wire 1 N" inst|srom|rom_block|auto_generated|ram_block1a0_PORTADATAOUT_bus [2] $end
$var wire 1 O" inst|srom|rom_block|auto_generated|ram_block1a0_PORTADATAOUT_bus [1] $end
$var wire 1 P" inst|srom|rom_block|auto_generated|ram_block1a0_PORTADATAOUT_bus [0] $end
$upscope $end
$upscope $end
$enddefinitions $end
#0
$dumpvars
0!
b0 "
b0 #
1$
04
03
02
01
00
0/
0.
0-
0,
0+
0*
0)
0(
0'
0&
0%
0<
0;
0:
09
08
07
06
05
x=
0>
1?
x@
1A
1B
1C
0D
0E
0F
0G
0H
0I
0J
0K
0L
0M
0N
0O
0P
0Q
0R
0S
0T
0U
0V
0W
0X
0Y
0Z
0[
0\
0]
1^
0_
1`
0a
1b
0c
0d
0e
0f
1g
0h
0i
0j
1k
0l
0m
0n
1o
0p
0q
0r
1s
0t
0u
0v
1w
0x
0y
0z
1{
0|
0}
0~
1!!
0"!
0#!
0$!
1%!
0&!
0'!
0(!
1)!
0*!
0+!
0,!
1-!
0.!
0/!
00!
11!
02!
03!
04!
15!
06!
17!
18!
09!
0:!
1;!
0<!
0=!
0>!
1?!
0@!
0A!
0B!
1C!
0D!
0E!
0F!
1G!
1H!
1I!
1J!
1K!
1L!
1M!
1N!
1O!
0P!
0Q!
0R!
1S!
0T!
0U!
0V!
0W!
0X!
1Y!
0Z!
0[!
0\!
0]!
0^!
1_!
0`!
0a!
0b!
0c!
0d!
0l!
0k!
0j!
0i!
0h!
0g!
0f!
0e!
0|!
0{!
0z!
0y!
0x!
0w!
0v!
0u!
0t!
0s!
0r!
0q!
0p!
0o!
0n!
0m!
0>"
0="
0<"
0;"
0:"
09"
08"
07"
06"
05"
04"
03"
02"
01"
00"
0/"
0."
0-"
0,"
0+"
0*"
0)"
0("
0'"
0&"
0%"
0$"
0#"
0""
0!"
0~!
0}!
0P"
0O"
0N"
0M"
0L"
0K"
0J"
0I"
0H"
0G"
0F"
0E"
0D"
0C"
0B"
0A"
0@"
0?"
$end
#10000
1!
1\
1]
0=
#10001
1O"
1{!
1R
13
#20000
0!
0\
0]
1=
1>"
1l!
0O!
1d
0b
1P!
0^
1[
1<
1e
1Q!
#30000
1!
1\
1]
0=
#30001
1P"
1N"
1L"
1|!
1z!
1x!
1S
1Q
1O
14
12
10
#40000
0!
0\
0]
1=
0>"
1O!
1f
0d
1b
0e
0f
#50000
1!
1\
1]
0=
#60000
0!
0\
0]
1=
1>"
0l!
1k!
0O!
1d
0b
0P!
1^
0S!
0Q!
0[
1Z
0<
1;
1e
1S!
1Q!
1T!
0T!
#70000
1!
1\
1]
0=
#70001
0P"
0O"
1M"
0L"
1K"
0|!
0{!
1y!
0x!
1w!
0S
0R
1P
0O
1N
04
03
11
00
1/
#80000
0!
0\
0]
1=
0>"
1O!
1f
0d
1b
0e
0f
#90000
1!
1\
1]
0=
#100000
0!
0\
0]
1=
1>"
1l!
0O!
1d
0b
1P!
0^
1[
1<
1e
0S!
0Q!
1T!
#110000
1!
1\
1]
0=
#110001
1P"
0N"
0M"
0K"
1J"
1|!
0z!
0y!
0w!
1v!
1S
0Q
0P
0N
1M
14
02
01
0/
1.
#120000
0!
0\
0]
1=
0>"
1O!
1f
0d
1b
0e
0f
#130000
1!
1\
1]
0=
#140000
0!
0\
0]
1=
1>"
0l!
0k!
1j!
0O!
1d
0b
0P!
1^
1S!
1Q!
1V!
0T!
0[
0Z
1Y
0<
0;
1:
1e
0Q!
0V!
1T!
1W!
0W!
#150000
1!
1\
1]
0=
#150001
0P"
1O"
1N"
1L"
0|!
1{!
1z!
1x!
0S
1R
1Q
1O
04
13
12
10
#160000
0!
0\
0]
1=
0>"
1O!
1f
0d
1b
0e
0f
#170000
1!
1\
1]
0=
#180000
0!
0\
0]
1=
1>"
1l!
0O!
1d
0b
1P!
0^
1[
1<
1e
1Q!
#190000
1!
1\
1]
0=
#190001
1P"
0N"
1M"
0L"
1K"
1|!
0z!
1y!
0x!
1w!
1S
0Q
1P
0O
1N
14
02
11
00
1/
#200000
0!
0\
0]
1=
0>"
1O!
1f
0d
1b
0e
0f
#210000
1!
1\
1]
0=
#220000
0!
0\
0]
1=
1>"
0l!
1k!
0O!
1d
0b
0P!
1^
0S!
0Q!
0[
1Z
0<
1;
1e
1S!
1Q!
1V!
0T!
0V!
1T!
1W!
0W!
#230000
1!
1\
1]
0=
#230001
0P"
0O"
0M"
0K"
0J"
1I"
0|!
0{!
0y!
0w!
0v!
1u!
0S
0R
0P
0N
0M
1L
04
03
01
0/
0.
1-
#240000
0!
0\
0]
1=
0>"
1O!
1f
0d
1b
0e
0f
#250000
1!
1\
1]
0=
#260000
0!
0\
0]
1=
1>"
1l!
0O!
1d
0b
1P!
0^
1[
1<
1e
0S!
0Q!
1V!
0T!
1W!
#270000
1!
1\
1]
0=
#270001
1P"
1N"
1L"
1|!
1z!
1x!
1S
1Q
1O
14
12
10
#280000
0!
0\
0]
1=
0>"
1O!
1f
0d
1b
0e
0f
#290000
1!
1\
1]
0=
#300000
0!
0\
0]
1=
1>"
0l!
0k!
0j!
1i!
0O!
1d
0b
0P!
1^
1S!
1Q!
0V!
1T!
0Y!
0W!
0[
0Z
0Y
1X
0<
0;
0:
19
1e
0Q!
0T!
1Y!
1W!
1Z!
0Z!
#310000
1!
1\
1]
0=
#310001
0P"
1O"
0N"
1M"
0L"
1K"
0|!
1{!
0z!
1y!
0x!
1w!
0S
1R
0Q
1P
0O
1N
04
13
02
11
00
1/
#320000
0!
0\
0]
1=
0>"
1O!
1f
0d
1b
0e
0f
#330000
1!
1\
1]
0=
#340000
0!
0\
0]
1=
1>"
1l!
0O!
1d
0b
1P!
0^
1[
1<
1e
1Q!
#350000
1!
1\
1]
0=
#350001
1P"
1N"
1L"
1|!
1z!
1x!
1S
1Q
1O
14
12
10
#360000
0!
0\
0]
1=
0>"
1O!
1f
0d
1b
0e
0f
#370000
1!
1\
1]
0=
#380000
0!
0\
0]
1=
1>"
0l!
1k!
0O!
1d
0b
0P!
1^
0S!
0Q!
0[
1Z
0<
1;
1e
1S!
1Q!
1T!
0T!
#390000
1!
1\
1]
0=
#390001
0P"
0O"
0M"
0K"
1J"
0|!
0{!
0y!
0w!
1v!
0S
0R
0P
0N
1M
04
03
01
0/
1.
#400000
0!
0\
0]
1=
0>"
1O!
1f
0d
1b
0e
0f
#410000
1!
1\
1]
0=
#420000
0!
0\
0]
1=
1>"
1l!
0O!
1d
0b
1P!
0^
1[
1<
1e
0S!
0Q!
1T!
#430000
1!
1\
1]
0=
#430001
1P"
0N"
1M"
0L"
1K"
1|!
0z!
1y!
0x!
1w!
1S
0Q
1P
0O
1N
14
02
11
00
1/
#440000
0!
0\
0]
1=
0>"
1O!
1f
0d
1b
0e
0f
#450000
1!
1\
1]
0=
#460000
0!
0\
0]
1=
1>"
0l!
0k!
1j!
0O!
1d
0b
0P!
1^
1S!
1Q!
1V!
0T!
0[
0Z
1Y
0<
0;
1:
1e
0Q!
0V!
1T!
0Y!
0W!
1Y!
1W!
1Z!
0Z!
#470000
1!
1\
1]
0=
#470001
0P"
1O"
1N"
1L"
0|!
1{!
1z!
1x!
0S
1R
1Q
1O
04
13
12
10
#480000
0!
0\
0]
1=
0>"
1O!
1f
0d
1b
0e
0f
#490000
1!
1\
1]
0=
#500000
0!
0\
0]
1=
1>"
1l!
0O!
1d
0b
1P!
0^
1[
1<
1e
1Q!
#510000
1!
1\
1]
0=
#510001
1P"
0N"
0M"
0K"
0J"
0I"
1H"
1|!
0z!
0y!
0w!
0v!
0u!
1t!
1S
0Q
0P
0N
0M
0L
1K
14
02
01
0/
0.
0-
1,
#520000
0!
0\
0]
1=
0>"
1O!
1f
0d
1b
0e
0f
#530000
1!
1\
1]
0=
#540000
0!
0\
0]
1=
1>"
0l!
1k!
0O!
1d
0b
0P!
1^
0S!
0Q!
0[
1Z
0<
1;
1e
1S!
1Q!
1V!
0T!
0V!
1T!
0Y!
0W!
1Y!
1W!
1Z!
0Z!
#550000
1!
1\
1]
0=
#550001
0P"
0O"
1M"
0L"
1K"
0|!
0{!
1y!
0x!
1w!
0S
0R
1P
0O
1N
04
03
11
00
1/
#560000
b10000000 "
b10010000 "
b10011000 "
b10011100 "
b10011110 "
b10011111 "
0!
1_
1R!
1U!
1X!
1[!
1d!
0\
0]
1=
0>"
1O!
1f
0d
1b
0e
0f
#570000
1!
1\
1]
0=
#580000
0!
0\
0]
1=
1>"
1l!
0O!
1d
0b
1P!
0^
1[
1<
1e
0S!
0Q!
1V!
0T!
0Y!
0W!
1Z!
#590000
b10 #
b11 #
1!
1c
1a
1\
1]
0=
1c!
1`!
1]!
1\!
0Z!
1W!
1T!
1Q!
1O!
0_!
0]!
1b!
0`!
0c!
#590001
1P"
1N"
1L"
1|!
1z!
1x!
1S
1Q
1O
14
12
10
#600000
0!
0\
0]
1=
0>"
1h!
1e!
1f
0d
1b
1Z!
1c!
1W
1T
18
15
0e
0f
#610000
1!
1\
1]
0=
#610001
0L"
0K"
1F"
1E"
0x!
0w!
1r!
1q!
0O
0N
1I
1H
00
0/
1*
1)
#620000
0!
0\
0]
1=
1>"
1d
0b
1e
#630000
1!
1\
1]
0=
#640000
0!
0\
0]
1=
0>"
1f
0d
1b
0e
0f
#650000
1!
1\
1]
0=
#660000
0!
0\
0]
1=
1>"
1d
0b
1e
#670000
1!
1\
1]
0=
#680000
0!
0\
0]
1=
0>"
1f
0d
1b
0e
0f
#690000
1!
1\
1]
0=
#700000
0!
0\
0]
1=
1>"
1d
0b
1e
#710000
1!
1\
1]
0=
#720000
b1 #
b0 #
0!
0c
0a
0\
0]
1=
0c!
0b!
1`!
1_!
1]!
0Z!
0W!
0T!
0Q!
0O!
1c!
0`!
0>"
0l!
1O!
1f
0d
1b
0P!
1^
0[
0<
0e
1S!
1Q!
0f
0V!
1T!
1Y!
1W!
0\!
1Z!
0]!
#730000
1!
1\
1]
0=
#730001
0P"
0N"
1L"
1K"
1J"
1I"
0H"
0|!
0z!
1x!
1w!
1v!
1u!
0t!
0S
0Q
1O
1N
1M
1L
0K
04
02
10
1/
1.
1-
0,
#740000
0!
0\
0]
1=
1>"
1l!
0O!
1d
0b
1P!
0^
1[
1<
1e
0S!
0Q!
1V!
0T!
0Y!
0W!
1\!
0Z!
1]!
#750000
1!
1\
1]
0=
#750001
1P"
1N"
0L"
0K"
0J"
0I"
1H"
1|!
1z!
0x!
0w!
0v!
0u!
1t!
1S
1Q
0O
0N
0M
0L
1K
14
12
00
0/
0.
0-
1,
#760000
0!
0\
0]
1=
0>"
1O!
1f
0d
1b
0e
0f
#770000
1!
1\
1]
0=
#780000
b11111 "
b1111 "
b111 "
b11 "
b1 "
b0 "
0!
0_
0R!
0U!
0X!
0[!
0d!
0\
0]
1=
1>"
0l!
0k!
0j!
0i!
0h!
1g!
0O!
1d
0b
0P!
1^
1S!
1Q!
0V!
1T!
1Y!
1W!
0\!
1Z!
0_!
0]!
0[
0Z
0Y
0X
0W
1V
0<
0;
0:
09
08
17
1e
0Q!
0T!
0W!
0Z!
1_!
1]!
1`!
0`!
#790000
1!
1\
1]
0=
#790001
0P"
1O"
0N"
0M"
1K"
0|!
1{!
0z!
0y!
1w!
0S
1R
0Q
0P
1N
04
13
02
01
1/
#800000
0!
0\
0]
1=
0>"
1O!
1f
0d
1b
0e
0f
#810000
1!
1\
1]
0=
#820000
0!
0\
0]
1=
1>"
1l!
0O!
1d
0b
1P!
0^
1[
1<
1e
1Q!
#830000
1!
1\
1]
0=
#830001
1P"
1N"
1L"
1|!
1z!
1x!
1S
1Q
1O
14
12
10
#840000
0!
0\
0]
1=
0>"
1O!
1f
0d
1b
0e
0f
#850000
1!
1\
1]
0=
#860000
0!
0\
0]
1=
1>"
0l!
1k!
0O!
1d
0b
0P!
1^
0S!
0Q!
0[
1Z
0<
1;
1e
1S!
1Q!
1T!
0T!
#870000
1!
1\
1]
0=
#870001
0P"
0O"
1M"
0L"
0K"
1J"
0|!
0{!
1y!
0x!
0w!
1v!
0S
0R
1P
0O
0N
1M
04
03
11
00
0/
1.
#880000
0!
0\
0]
1=
0>"
1O!
1f
0d
1b
0e
0f
#890000
1!
1\
1]
0=
#900000
0!
0\
0]
1=
1>"
1l!
0O!
1d
0b
1P!
0^
1[
1<
1e
0S!
0Q!
1T!
#910000
1!
1\
1]
0=
#910001
1P"
0N"
0M"
1K"
1|!
0z!
0y!
1w!
1S
0Q
0P
1N
14
02
01
1/
#920000
0!
0\
0]
1=
0>"
1O!
1f
0d
1b
0e
0f
#930000
1!
1\
1]
0=
#940000
0!
0\
0]
1=
1>"
0l!
0k!
1j!
0O!
1d
0b
0P!
1^
1S!
1Q!
1V!
0T!
0[
0Z
1Y
0<
0;
1:
1e
0Q!
0V!
1T!
1W!
0W!
#950000
1!
1\
1]
0=
#950001
0P"
1O"
1N"
1L"
0|!
1{!
1z!
1x!
0S
1R
1Q
1O
04
13
12
10
#960000
0!
0\
0]
1=
0>"
1O!
1f
0d
1b
0e
0f
#970000
1!
1\
1]
0=
#980000
0!
0\
0]
1=
1>"
1l!
0O!
1d
0b
1P!
0^
1[
1<
1e
1Q!
#990000
1!
1\
1]
0=
#990001
1P"
0N"
1M"
0L"
0K"
0J"
1I"
1|!
0z!
1y!
0x!
0w!
0v!
1u!
1S
0Q
1P
0O
0N
0M
1L
14
02
11
00
0/
0.
1-
